


                     eT 1.5 - an electronic structure program

  ------------------------------------------------------------------------
   Author list in alphabetical order:
  ------------------------------------------------------------------------
   J. H. Andersen, A. Balbi, S. Coriani, S. D. Folkestad, T. Giovannini, 
   L. Goletto, T. S. Haugland, A. Hutcheson, I-M. Høyvik, E. F. Kjønstad, 
   H. Koch, T. Moitra, R. H. Myhre, A. C. Paul, S. Roet, M. Scavino, 
   A. Skeidsvoll, Å. H. Tveten
  ------------------------------------------------------------------------
   J. Chem. Phys. 152, 184103 (2020); https://doi.org/10.1063/5.0004713


   This is eT 1.5.0 Furia (development)
  ------------------------------------------------------------
  Configuration date: 2021-10-06 10:20:02 UTC +02:00
  Git branch:         hf-cleanup-oao-stuff
  Git hash:           82fed81e1022a04236e45d2edec97a412b5fa7bd
  Fortran compiler:   GNU 10.3.0
  C compiler:         GNU 10.3.0
  C++ compiler:       GNU 10.3.0
  LAPACK type:        SYSTEM_NATIVE
  BLAS type:          SYSTEM_NATIVE
  64-bit integers:    OFF
  OpenMP:             ON
  PCM:                OFF
  Forced batching:    OFF
  Runtime checks:     OFF
  ------------------------------------------------------------

  Calculation started: 2021-10-06 10:30:29 UTC +02:00


  :: Input file
  ================

     Note: geometry section is excluded from this print

     system
        name: H2O He
        charge: 0
     end system

     do
        ground state
        excited state
     end do

     memory
        available: 8
     end memory

     solver cholesky
        threshold: 1.0d-12
     end solver cholesky

     solver scf
        algorithm:          scf-diis
        energy threshold:   1.0d-12
        gradient threshold: 1.0d-12
     end solver scf

     method
        hf
        mlcc2
     end method

     solver cc gs
        omega threshold:  1.0d-12
        energy threshold: 1.0d-12
     end solver cc gs

     solver cc es
        algorithm:          davidson
        singlet states:     4
        residual threshold: 1.0d-12
        energy threshold:   1.0d-12
        left eigenvectors
     end solver cc es

     active atoms
        selection type: list
        cc2: {3}
     end active atoms

     mlcc
        cc2 orbitals: cholesky
        cholesky threshold: 1.0d-1
     end mlcc


  Running on 2 OMP threads
  Memory available for calculation: 8.000000 GB


  :: RHF wavefunction
  ======================

     ==============================================================================
                                     Geometry (angstrom)
     ==============================================================================
        Atom           X                  Y                  Z         # in input
     ==============================================================================
        Basis: cc-pvdz
        1  O     0.000000000000    -0.075790000000     5.000000000000        3
        2  H     0.866810000000     0.601440000000     5.000000000000        1
        3  H    -0.866810000000     0.601440000000     5.000000000000        2
        4 He     0.100000000000    -0.020000000000     7.530000000000        4
     ==============================================================================

     ==============================================================================
                                     Geometry (a.u.)
     ==============================================================================
        Atom           X                  Y                  Z         # in input
     ==============================================================================
        Basis: cc-pvdz
        1  O     0.000000000000    -0.143222342981     9.448630622825        3
        2  H     1.638033502034     1.136556880358     9.448630622825        1
        3  H    -1.638033502034     1.136556880358     9.448630622825        2
        4 He     0.188972612457    -0.037794522491    14.229637717975        4
     ==============================================================================

  - Cholesky decomposition of AO overlap to get linearly independent AOs:

     Linear dependence threshold:             0.10E-05
     Number of atomic orbitals:               29
     Number of orthonormal atomic orbitals:   29

  - Molecular orbital details:

     Number of occupied orbitals:         6
     Number of virtual orbitals:         23
     Number of molecular orbitals:       29


  :: Hartree-Fock engine
  =========================

  Drives the calculation of the Hartree-Fock state.

  This is a RHF ground state calculation.
  The following tasks will be performed:

     1) Generate initial SAD density
     2) Calculation of reference state (SCF-DIIS algorithm)


  1) Generate initial SAD density


  2) Calculation of reference state (SCF-DIIS algorithm)

  - SCF solver settings:

     Maximum iterations:                   100
     Acceleration type:                   diis

  - Convergence thresholds

     Residual threshold:            0.1000E-11
     Energy threshold:              0.1000E-11

  - Setting initial AO density to sad

     Energy of initial guess:               -78.492022836315
     Number of electrons in guess:           12.000000000000

  - Screening and integral thresholds:

     Coulomb screening threshold:    0.1000E-17
     Exchange screening threshold:   0.1000E-15
     ERI cutoff:                     0.1000E-17
     One-electron integral  cutoff:  0.1000E-22
     Cumulative Fock threshold:      0.1000E+01

  - DIIS tool settings:

     DIIS dimension:   8

     Storage (solver scf_errors): memory
     Storage (solver scf_parameters): memory

  Iteration       Energy (a.u.)      Max(grad.)    Delta E (a.u.)
  ---------------------------------------------------------------
     1           -78.796606592587     0.9711E-01     0.7880E+02
     2           -78.828675852655     0.7077E-01     0.3207E-01
     3           -78.843487343819     0.6125E-02     0.1481E-01
     4           -78.843814479549     0.2753E-02     0.3271E-03
     5           -78.843850612079     0.3973E-03     0.3613E-04
     6           -78.843851670925     0.5220E-04     0.1059E-05
     7           -78.843851692779     0.6749E-05     0.2185E-07
     8           -78.843851693528     0.2204E-05     0.7487E-09
     9           -78.843851693630     0.3162E-06     0.1027E-09
    10           -78.843851693631     0.2573E-07     0.4405E-12
    11           -78.843851693631     0.5507E-08     0.0000E+00
    12           -78.843851693631     0.1348E-08     0.2842E-13
    13           -78.843851693631     0.6167E-09     0.4263E-13
    14           -78.843851693631     0.1382E-09     0.1421E-13
    15           -78.843851693631     0.2501E-10     0.2842E-13
    16           -78.843851693631     0.5167E-11     0.4263E-13
    17           -78.843851693631     0.1343E-11     0.7105E-13
    18           -78.843851693631     0.2368E-12     0.0000E+00
  ---------------------------------------------------------------
  Convergence criterion met in 18 iterations!

  - Summary of RHF wavefunction energetics (a.u.):

     HOMO-LUMO gap:                  0.645629080251
     Nuclear repulsion energy:      12.116100574587
     Electronic energy:            -90.959952268218
     Total energy:                 -78.843851693631

  - Timings for the RHF ground state calculation

     Total wall time (sec):              1.00300
     Total cpu time (sec):               1.80723


  :: MLCC2 wavefunction
  ========================

     Bath orbital(s):         False

   - Number of orbitals:

     Occupied orbitals:    6
     Virtual orbitals:     23
     Molecular orbitals:   29
     Atomic orbitals:      29


  :: Excited state coupled cluster engine
  ==========================================

  Calculates the coupled cluster excitation vectors and excitation energies

  This is a MLCC2 excited state calculation.
  The following tasks will be performed:

     1) Cholesky decomposition of the electron repulsion integrals
     2) Preparation of MO basis and integrals
     3) Calculation of the ground state (diis algorithm)
     4) Calculation of the excited state (davidson algorithm)


  1) Cholesky decomposition of the electron repulsion integrals

   - Cholesky decomposition of electronic repulsion integrals solver
  ---------------------------------------------------------------------

  Performs a Cholesky decomposition of the two-electron electronic repulsion 
  integrals in the atomic orbital basis,

  (ab|cd) = sum_J L_ab^J L_cd^J.

  Once the Cholesky basis has been determined, the vectors L^J are constructed 
  and stored to disk. These may either be used directly, or be transformed 
  to the MO basis for use in post-HF calculations. For more information, 
  see S. D. Folkestad, E. F. Kjønstad and H. Koch, JCP, 150(19), (2019)

  - Cholesky decomposition settings:

     Target threshold is:   0.10E-11
     Span factor:           0.10E-01
     Max qual:                  1000

  - Cholesky decomposition ao details:

     Total number of AOs:                    29
     Total number of shell pairs:           120
     Total number of AO pairs:              435

     Significant shell pairs:               118
     Significant AO pairs:                  431

     Construct shell pairs:                 120
     Construct AO pairs:                    435

  Iter.  #Sign. ao pairs / shell pairs   Max diagonal    #Qualified    #Cholesky    Cholesky array size
  -------------------------------------------------------------------------------------------------------
     1               406 /     108       0.47383E+01         147             42             17052
     2               319 /      93       0.47165E-01         234            111             35409
     3               250 /      76       0.46944E-03         178            183             45750
     4               187 /      55       0.38270E-05         145            265             49555
     5                87 /      25       0.38106E-07          78            324             28188
     6                21 /       3       0.37202E-09          43            349              7329
     7                 0 /       0       0.36652E-11           7            354                 0
  -------------------------------------------------------------------------------------------------------

  - Summary of Cholesky decomposition of electronic repulsion integrals:

     Final number of Cholesky vectors: 354

 - Testing the Cholesky decomposition decomposition electronic repulsion integrals:

     Maximal difference between approximate and actual diagonal:              0.7161E-12
     Minimal element of difference between approximate and actual diagonal:  -0.1238E-14

  - Settings for integral handling:

     Cholesky vectors in memory: True
     ERI matrix in memory:       False
     T1 ERI matrix in memory:    False

  - Finished decomposing the ERIs.

     Total wall time (sec):              0.41900
     Total cpu time (sec):               0.62838


  2) Preparation of MO basis and integrals

     The smallest diagonal after decomposition is:  -0.1022E-16

     The smallest diagonal after decomposition is:  -0.1358E-13

  - MLCC2 orbital partitioning:

     Orbital type: cholesky

     Number occupied cc2 orbitals:    5
     Number virtual cc2 orbitals:    13

     Number occupied ccs orbitals:    1
     Number virtual ccs orbitals:    10


  3) Calculation of the ground state (diis algorithm)

   - DIIS coupled cluster ground state solver
  ----------------------------------------------

  A DIIS CC ground state amplitude equations solver. It uses an extrapolation 
  of previous quasi-Newton perturbation theory estimates of the next amplitudes. 
  See Helgaker et al., Molecular Electronic Structure Theory, Chapter 
  13.

  - CC ground state solver settings:

  - Convergence thresholds

     Residual threshold:            0.1000E-11
     Energy threshold:              0.1000E-11
     Max number of iterations:      100

  - DIIS tool settings:

     DIIS dimension:   8

     Storage (cc_gs_diis_errors): file
     Storage (cc_gs_diis_parameters): file

  Iteration    Energy (a.u.)        |omega|       Delta E (a.u.)
  ---------------------------------------------------------------
    1           -78.991239569035     0.2815E-01     0.7899E+02
    2           -78.991934311171     0.1295E-01     0.6947E-03
    3           -78.992356001603     0.5943E-02     0.4217E-03
    4           -78.992614945282     0.1643E-02     0.2589E-03
    5           -78.992652952996     0.7528E-03     0.3801E-04
    6           -78.992655383665     0.4255E-03     0.2431E-05
    7           -78.992658054161     0.1110E-03     0.2670E-05
    8           -78.992658419625     0.4063E-04     0.3655E-06
    9           -78.992658348445     0.1137E-04     0.7118E-07
   10           -78.992658317935     0.2727E-05     0.3051E-07
   11           -78.992658320632     0.1418E-05     0.2697E-08
   12           -78.992658325639     0.9051E-06     0.5007E-08
   13           -78.992658327967     0.2578E-06     0.2328E-08
   14           -78.992658325824     0.9628E-07     0.2143E-08
   15           -78.992658323541     0.3812E-07     0.2283E-08
   16           -78.992658322422     0.1367E-07     0.1120E-08
   17           -78.992658322018     0.4768E-08     0.4037E-09
   18           -78.992658321920     0.1716E-08     0.9825E-10
   19           -78.992658321896     0.5490E-09     0.2345E-10
   20           -78.992658321885     0.1811E-09     0.1090E-10
   21           -78.992658321885     0.8976E-10     0.6963E-12
   22           -78.992658321885     0.5379E-10     0.7105E-13
   23           -78.992658321885     0.2207E-10     0.8527E-13
   24           -78.992658321885     0.7706E-11     0.1847E-12
   25           -78.992658321885     0.2785E-11     0.5684E-13
   26           -78.992658321885     0.1459E-11     0.1421E-13
   27           -78.992658321885     0.8199E-12     0.1421E-13
  ---------------------------------------------------------------
  Convergence criterion met in 27 iterations!

  - Ground state summary:

     Final ground state energy (a.u.):   -78.992658321885

     Correlation energy (a.u.):           -0.148806628254

     Largest single amplitudes:
     -----------------------------------
        a       i         t(a,i)
     -----------------------------------
       15      4       -0.016328878160
        5      3        0.014564153928
        6      4        0.012826074950
       17      3        0.012491270947
        3      3        0.009204805602
       14      3       -0.007937198481
        2      5        0.006832883845
       20      3       -0.003941989393
        1      2        0.003004112650
       15      2       -0.002970409243
     ------------------------------------

  - Finished solving the MLCC2 ground state equations

     Total wall time (sec):              0.21200
     Total cpu time (sec):               0.25153


  4) Calculation of the excited state (davidson algorithm)
     Calculating left vectors

   - Davidson coupled cluster excited state solver
  ---------------------------------------------------

  A Davidson solver that calculates the lowest eigenvalues and the right 
  or left eigenvectors of the Jacobian matrix, A. The eigenvalue problem 
  is solved in a reduced space, the dimension of which is expanded until 
  the convergence criteria are met.

  A complete description of the algorithm can be found in E. R. Davidson, 
  J. Comput. Phys. 17, 87 (1975).

  - Settings for coupled cluster excited state solver (Davidson):

     Calculation type:    valence
     Excitation vectors:  left

  - Convergence thresholds

     Residual threshold:            0.1000E-11
     Energy threshold:              0.1000E-11

     Number of singlet states:               4
     Max number of iterations:             100

   - Davidson tool settings:

     Number of parameters:                 2283
     Number of requested solutions:           4
     Max reduced space dimension:           100

     Storage (cc_es_davidson_trials): file
     Storage (cc_es_davidson_transforms): file

  Iteration:                  1
  Reduced space dimension:    4

   Root  Eigenvalue (Re)   Eigenvalue (Im)    |residual|   Delta E (Re)
  ------------------------------------------------------------------------
     1   0.757174123696    0.000000000000     0.3990E+00   0.7572E+00
     2   0.829230265260    0.000000000000     0.4131E+00   0.8292E+00
     3   0.906147519148    0.000000000000     0.9118E+00   0.9061E+00
     4   0.920941562165    0.000000000000     0.4076E+00   0.9209E+00
  ------------------------------------------------------------------------

  Iteration:                  2
  Reduced space dimension:    8

   Root  Eigenvalue (Re)   Eigenvalue (Im)    |residual|   Delta E (Re)
  ------------------------------------------------------------------------
     1   0.351247640721    0.000000000000     0.3520E+00   0.4059E+00
     2   0.621365807123    0.000000000000     0.3774E+00   0.2079E+00
     3   0.676555623802    0.000000000000     0.3784E+00   0.2296E+00
     4   0.787634721879    0.000000000000     0.3225E+00   0.1333E+00
  ------------------------------------------------------------------------

  Iteration:                  3
  Reduced space dimension:   12

   Root  Eigenvalue (Re)   Eigenvalue (Im)    |residual|   Delta E (Re)
  ------------------------------------------------------------------------
     1   0.319933266957    0.000000000000     0.8978E-01   0.3131E-01
     2   0.402982897060    0.000000000000     0.3088E+00   0.2184E+00
     3   0.489809235169    0.000000000000     0.2522E+00   0.1867E+00
     4   0.634729882090    0.000000000000     0.2804E+00   0.1529E+00
  ------------------------------------------------------------------------

  Iteration:                  4
  Reduced space dimension:   16

   Root  Eigenvalue (Re)   Eigenvalue (Im)    |residual|   Delta E (Re)
  ------------------------------------------------------------------------
     1   0.311475543913    0.000000000000     0.2778E-01   0.8458E-02
     2   0.365187240937    0.000000000000     0.4238E-01   0.3780E-01
     3   0.462364133643    0.000000000000     0.4827E-01   0.2745E-01
     4   0.595520492076    0.000000000000     0.9244E-01   0.3921E-01
  ------------------------------------------------------------------------

  Iteration:                  5
  Reduced space dimension:   20

   Root  Eigenvalue (Re)   Eigenvalue (Im)    |residual|   Delta E (Re)
  ------------------------------------------------------------------------
     1   0.311405164325    0.000000000000     0.5397E-02   0.7038E-04
     2   0.364879727146    0.000000000000     0.7156E-02   0.3075E-03
     3   0.461231880222    0.000000000000     0.1981E-01   0.1132E-02
     4   0.569264129477    0.000000000000     0.3386E+00   0.2626E-01
  ------------------------------------------------------------------------

  Iteration:                  6
  Reduced space dimension:   24

   Root  Eigenvalue (Re)   Eigenvalue (Im)    |residual|   Delta E (Re)
  ------------------------------------------------------------------------
     1   0.311441356733    0.000000000000     0.1475E-02   0.3619E-04
     2   0.364812146057    0.000000000000     0.2168E-02   0.6758E-04
     3   0.419792666899    0.000000000000     0.1908E+00   0.4144E-01
     4   0.460871813817    0.000000000000     0.2085E-01   0.1084E+00
  ------------------------------------------------------------------------

  Iteration:                  7
  Reduced space dimension:   28

   Root  Eigenvalue (Re)   Eigenvalue (Im)    |residual|   Delta E (Re)
  ------------------------------------------------------------------------
     1   0.311440385834    0.000000000000     0.3085E-03   0.9709E-06
     2   0.364805547953    0.000000000000     0.3570E-03   0.6598E-05
     3   0.407317786978    0.000000000000     0.5618E-01   0.1247E-01
     4   0.459804555044    0.000000000000     0.4144E-01   0.1067E-02
  ------------------------------------------------------------------------

  Iteration:                  8
  Reduced space dimension:   32

   Root  Eigenvalue (Re)   Eigenvalue (Im)    |residual|   Delta E (Re)
  ------------------------------------------------------------------------
     1   0.311438527804    0.000000000000     0.7098E-04   0.1858E-05
     2   0.364809162211    0.000000000000     0.1873E-03   0.3614E-05
     3   0.405953986908    0.000000000000     0.1488E-01   0.1364E-02
     4   0.457725871940    0.000000000000     0.2686E-01   0.2079E-02
  ------------------------------------------------------------------------

  Iteration:                  9
  Reduced space dimension:   36

   Root  Eigenvalue (Re)   Eigenvalue (Im)    |residual|   Delta E (Re)
  ------------------------------------------------------------------------
     1   0.311438803152    0.000000000000     0.2355E-04   0.2753E-06
     2   0.364807403243    0.000000000000     0.2597E-04   0.1759E-05
     3   0.405844618223    0.000000000000     0.5780E-02   0.1094E-03
     4   0.457375854119    0.000000000000     0.9568E-02   0.3500E-03
  ------------------------------------------------------------------------

  Iteration:                 10
  Reduced space dimension:   40

   Root  Eigenvalue (Re)   Eigenvalue (Im)    |residual|   Delta E (Re)
  ------------------------------------------------------------------------
     1   0.311438858402    0.000000000000     0.9039E-05   0.5525E-07
     2   0.364807621574    0.000000000000     0.5181E-05   0.2183E-06
     3   0.405799815737    0.000000000000     0.2317E-02   0.4480E-04
     4   0.457305719072    0.000000000000     0.3366E-02   0.7014E-04
  ------------------------------------------------------------------------

  Iteration:                 11
  Reduced space dimension:   44

   Root  Eigenvalue (Re)   Eigenvalue (Im)    |residual|   Delta E (Re)
  ------------------------------------------------------------------------
     1   0.311438815013    0.000000000000     0.1532E-05   0.4339E-07
     2   0.364807624677    0.000000000000     0.1383E-05   0.3103E-08
     3   0.405818855139    0.000000000000     0.5559E-03   0.1904E-04
     4   0.457308695831    0.000000000000     0.9714E-03   0.2977E-05
  ------------------------------------------------------------------------

  Iteration:                 12
  Reduced space dimension:   48

   Root  Eigenvalue (Re)   Eigenvalue (Im)    |residual|   Delta E (Re)
  ------------------------------------------------------------------------
     1   0.311438821573    0.000000000000     0.4347E-06   0.6561E-08
     2   0.364807619306    0.000000000000     0.4100E-06   0.5372E-08
     3   0.405816053183    0.000000000000     0.1581E-03   0.2802E-05
     4   0.457308519252    0.000000000000     0.3503E-03   0.1766E-06
  ------------------------------------------------------------------------

  Iteration:                 13
  Reduced space dimension:   52

   Root  Eigenvalue (Re)   Eigenvalue (Im)    |residual|   Delta E (Re)
  ------------------------------------------------------------------------
     1   0.311438820401    0.000000000000     0.1169E-06   0.1173E-08
     2   0.364807620036    0.000000000000     0.1033E-06   0.7300E-09
     3   0.405815729525    0.000000000000     0.5149E-04   0.3237E-06
     4   0.457308046492    0.000000000000     0.6757E-04   0.4728E-06
  ------------------------------------------------------------------------

  Iteration:                 14
  Reduced space dimension:   56

   Root  Eigenvalue (Re)   Eigenvalue (Im)    |residual|   Delta E (Re)
  ------------------------------------------------------------------------
     1   0.311438820461    0.000000000000     0.2248E-07   0.6001E-10
     2   0.364807620018    0.000000000000     0.1695E-07   0.1809E-10
     3   0.405816053895    0.000000000000     0.1076E-04   0.3244E-06
     4   0.457308219057    0.000000000000     0.9503E-05   0.1726E-06
  ------------------------------------------------------------------------

  Iteration:                 15
  Reduced space dimension:   60

   Root  Eigenvalue (Re)   Eigenvalue (Im)    |residual|   Delta E (Re)
  ------------------------------------------------------------------------
     1   0.311438820475    0.000000000000     0.3807E-08   0.1445E-10
     2   0.364807620018    0.000000000000     0.2926E-08   0.3658E-13
     3   0.405815980342    0.000000000000     0.2021E-05   0.7355E-07
     4   0.457308250462    0.000000000000     0.1307E-05   0.3140E-07
  ------------------------------------------------------------------------

  Iteration:                 16
  Reduced space dimension:   64

   Root  Eigenvalue (Re)   Eigenvalue (Im)    |residual|   Delta E (Re)
  ------------------------------------------------------------------------
     1   0.311438820474    0.000000000000     0.5901E-09   0.1402E-11
     2   0.364807620014    0.000000000000     0.4330E-09   0.3178E-11
     3   0.405815977821    0.000000000000     0.3301E-06   0.2521E-08
     4   0.457308247165    0.000000000000     0.2090E-06   0.3297E-08
  ------------------------------------------------------------------------

  Iteration:                 17
  Reduced space dimension:   68

   Root  Eigenvalue (Re)   Eigenvalue (Im)    |residual|   Delta E (Re)
  ------------------------------------------------------------------------
     1   0.311438820474    0.000000000000     0.9619E-10   0.1316E-13
     2   0.364807620015    0.000000000000     0.6802E-10   0.1040E-11
     3   0.405815980186    0.000000000000     0.5500E-07   0.2365E-08
     4   0.457308246799    0.000000000000     0.3028E-07   0.3657E-09
  ------------------------------------------------------------------------

  Iteration:                 18
  Reduced space dimension:   72

   Root  Eigenvalue (Re)   Eigenvalue (Im)    |residual|   Delta E (Re)
  ------------------------------------------------------------------------
     1   0.311438820474    0.000000000000     0.1261E-10   0.4247E-13
     2   0.364807620015    0.000000000000     0.8697E-11   0.1120E-12
     3   0.405815979814    0.000000000000     0.7431E-08   0.3714E-09
     4   0.457308246770    0.000000000000     0.4830E-08   0.2852E-10
  ------------------------------------------------------------------------

  Iteration:                 19
  Reduced space dimension:   76

   Root  Eigenvalue (Re)   Eigenvalue (Im)    |residual|   Delta E (Re)
  ------------------------------------------------------------------------
     1   0.311438820474    0.000000000000     0.1342E-11   0.2387E-14
     2   0.364807620015    0.000000000000     0.9676E-12   0.1998E-14
     3   0.405815979830    0.000000000000     0.8145E-09   0.1570E-10
     4   0.457308246773    0.000000000000     0.6526E-09   0.2376E-11
  ------------------------------------------------------------------------

  Iteration:                 20
  Reduced space dimension:   79

   Root  Eigenvalue (Re)   Eigenvalue (Im)    |residual|   Delta E (Re)
  ------------------------------------------------------------------------
     1   0.311438820474    0.000000000000     0.1630E-12   0.4996E-15
     2   0.364807620015    0.000000000000     0.2406E-12   0.4996E-15
     3   0.405815979832    0.000000000000     0.1039E-09   0.2240E-11
     4   0.457308246772    0.000000000000     0.8612E-10   0.2734E-12
  ------------------------------------------------------------------------

  Iteration:                 21
  Reduced space dimension:   81

   Root  Eigenvalue (Re)   Eigenvalue (Im)    |residual|   Delta E (Re)
  ------------------------------------------------------------------------
     1   0.311438820474    0.000000000000     0.4843E-13   0.1665E-14
     2   0.364807620015    0.000000000000     0.2214E-12   0.8882E-15
     3   0.405815979832    0.000000000000     0.1156E-10   0.2442E-14
     4   0.457308246773    0.000000000000     0.1170E-10   0.2041E-12
  ------------------------------------------------------------------------

  Iteration:                 22
  Reduced space dimension:   83

   Root  Eigenvalue (Re)   Eigenvalue (Im)    |residual|   Delta E (Re)
  ------------------------------------------------------------------------
     1   0.311438820474    0.000000000000     0.4332E-13   0.2776E-15
     2   0.364807620015    0.000000000000     0.2215E-12   0.1887E-14
     3   0.405815979832    0.000000000000     0.1564E-11   0.1898E-13
     4   0.457308246773    0.000000000000     0.1440E-11   0.1787E-13
  ------------------------------------------------------------------------

  Iteration:                 23
  Reduced space dimension:   85

   Root  Eigenvalue (Re)   Eigenvalue (Im)    |residual|   Delta E (Re)
  ------------------------------------------------------------------------
     1   0.311438820474    0.000000000000     0.4192E-13   0.5551E-16
     2   0.364807620015    0.000000000000     0.2201E-12   0.7327E-14
     3   0.405815979832    0.000000000000     0.2079E-12   0.9437E-15
     4   0.457308246773    0.000000000000     0.1056E-12   0.2220E-15
  ------------------------------------------------------------------------
  Convergence criterion met in 23 iterations!

  - Excitation vector amplitudes:

     Electronic state nr. 1

     Energy (Hartree):                  0.311438820474
     Fraction singles (|L1|/|L|):       0.996937539645

     MLCC diagnostics:

     |L1^internal|/|L| =       0.556929327842
     |L1^internal|/|L1| =      0.558640141126

     Largest single amplitudes:
     -----------------------------------
        a       i         L(a,i)
     -----------------------------------
       15      5       -0.810679799662
        6      5        0.516561034735
        4      5        0.179635843449
       16      5       -0.161518311371
       12      5       -0.065400053532
        1      5        0.059313234888
        7      5        0.043391445245
        8      5        0.024202697080
        2      5        0.019932454269
       11      5       -0.013941182136
     ------------------------------------

     Electronic state nr. 2

     Energy (Hartree):                  0.364807620015
     Fraction singles (|L1|/|L|):       0.995873369318

     MLCC diagnostics:

     |L1^internal|/|L| =       0.658648253517
     |L1^internal|/|L1| =      0.661377514260

     Largest single amplitudes:
     -----------------------------------
        a       i         L(a,i)
     -----------------------------------
       17      5       -0.541902795315
        3      5       -0.521123905099
       14      5        0.507344734677
        5      5       -0.400642056795
       20      5        0.081358729858
       13      5       -0.040563750804
       14      6       -0.008611180209
        3      6        0.006880012490
       17      6        0.006544688761
        2      5       -0.006360812691
     ------------------------------------

     Electronic state nr. 3

     Energy (Hartree):                  0.405815979832
     Fraction singles (|L1|/|L|):       0.996090974791

     MLCC diagnostics:

     |L1^internal|/|L| =       0.561558845098
     |L1^internal|/|L1| =      0.563762607342

     Largest single amplitudes:
     -----------------------------------
        a       i         L(a,i)
     -----------------------------------
       15      4       -0.796815859988
        6      4        0.498708712536
        4      4        0.197456422355
       16      4       -0.146783892875
       17      3       -0.115153079507
        3      3       -0.099013870250
        5      3       -0.092677583849
       14      3        0.077320690756
       12      4       -0.053101903274
        2      5        0.048851512447
     ------------------------------------

     Electronic state nr. 4

     Energy (Hartree):                  0.457308246773
     Fraction singles (|L1|/|L|):       0.996269598175

     MLCC diagnostics:

     |L1^internal|/|L| =       0.626516889587
     |L1^internal|/|L1| =      0.628862800526

     Largest single amplitudes:
     -----------------------------------
        a       i         L(a,i)
     -----------------------------------
       14      4        0.522957781616
       17      4       -0.489263292223
        3      4       -0.471860094720
        5      4       -0.354573163001
       15      3       -0.272598410973
        6      3        0.187746195800
       16      3       -0.082946977180
       20      4        0.075053565865
        4      3        0.068006791041
       13      4       -0.046894610462
     ------------------------------------

     - Electronic excitation energies:

                                      Excitation energy
                          ------------------------------------------
      State                (Hartree)             (eV)
     ---------------------------------------------------------------
        1                  0.311438820474        8.474681965525
        2                  0.364807620015        9.926920971274
        3                  0.405815979832       11.042815280303
        4                  0.457308246773       12.443991233059
     ---------------------------------------------------------------
     eV/Hartree (CODATA 2014): 27.21138602

  - Finished solving the MLCC2 excited state equations (left)

     Total wall time (sec):              0.76700
     Total cpu time (sec):               0.82388

  - Timings for the MLCC2 excited state calculation

     Total wall time (sec):              1.41400
     Total cpu time (sec):               1.72161

  ------------------------------------------------------------

  Peak memory usage during the execution of eT: 10.665712 MB

  Total wall time in eT (sec):              2.47100
  Total cpu time in eT (sec):               3.58424

  Calculation ended: 2021-10-06 10:30:31 UTC +02:00

  - Implementation references:

     eT: https://doi.org/10.1063/5.0004713
     MLCC2 and MLCCSD: https://doi.org/10.1021/acs.jctc.9b00701
     Cholesky decomposition of ERIs: https://doi.org/10.1063/1.5083802

  eT terminated successfully!
