  ------------------------------------------------------------
  Configuration date: 2021-10-06 10:20:02 UTC +02:00
  Git branch:         hf-cleanup-oao-stuff
  Git hash:           82fed81e1022a04236e45d2edec97a412b5fa7bd
  Fortran compiler:   GNU 10.3.0
  C compiler:         GNU 10.3.0
  C++ compiler:       GNU 10.3.0
  LAPACK type:        SYSTEM_NATIVE
  BLAS type:          SYSTEM_NATIVE
  64-bit integers:    OFF
  OpenMP:             ON
  PCM:                OFF
  Forced batching:    OFF
  Runtime checks:     OFF
  ------------------------------------------------------------

  Description                                 wall[s]         cpu[s]    cpu/wall
  -------------------------------------------------------------------------------------
  One-electron integrals (overlap)             0.00            0.00      0.77
  Cholesky decomposition of AO        
  overlap                                      0.00            0.00      0.76
  Time initializing AO tool                    0.03            0.03      1.04

  :: Hartree-Fock engine
  =========================

  2) Calculation of reference state (SCF-DIIS algorithm)

  Description                                 wall[s]         cpu[s]    cpu/wall
  -------------------------------------------------------------------------------------
  One-electron integrals              
  (hamiltonian)                                0.00            0.00        --
  AO G construction                            0.03            0.06      1.88
  SCF solver                                   0.03            0.06      1.89
  Hartree-Fock engine                          0.03            0.06      1.86

  :: Excited state coupled cluster engine
  ==========================================

  1) Cholesky decomposition of the electron repulsion integrals

  Description                                 wall[s]         cpu[s]    cpu/wall
  -------------------------------------------------------------------------------------
  Cholesky: time to determine         
  auxiliary basis                              0.12            0.19      1.54
  Cholesky: time to construct         
  (J|K), decompose, and invert                 0.06            0.10      1.72
  Diagonal test                                0.14            0.23      1.66
  Construct and write Cholesky        
  vectors                                      0.09            0.13      1.41
  Cholesky decomposition of ERIs               0.41            0.64      1.58

  2) Preparation of MO basis and integrals

  Description                                 wall[s]         cpu[s]    cpu/wall
  -------------------------------------------------------------------------------------

  3) Calculation of the ground state (diis algorithm)

  Description                                 wall[s]         cpu[s]    cpu/wall
  -------------------------------------------------------------------------------------
  Copy Cholesky MO to T1                       0.00            0.00      0.77
  Update t1 cholesky                           0.00            0.00      0.75
  One-electron integrals              
  (hamiltonian)                                0.00            0.00        --
  One-electron integrals              
  (hamiltonian)                                0.00            0.00      0.69
  Fock matrix construction (T1 basis)         0.00            0.00      1.06
  Construct CCS Omega                          0.00            0.00        --
  Construct u_aibj CC2                         0.00            0.00        --
  Construct CC2 omega                          0.00            0.00      1.24
  DIIS CC GS iteration time                    0.01            0.01      1.31
  CC GS solver time                            0.01            0.01      1.21

  4) Calculation of the excited state (davidson algorithm)
     Calculating right vectors

  Description                                 wall[s]         cpu[s]    cpu/wall
  -------------------------------------------------------------------------------------
  One-electron integrals              
  (hamiltonian)                                0.00            0.00      0.73
  One-electron integrals              
  (hamiltonian)                                0.00            0.00        --
  One-electron integrals              
  (hamiltonian)                                0.00            0.00        --
  Fock matrix construction (T1 basis)         0.00            0.01      1.07
  Prepare for Jacobian CC2                     0.00            0.00      2.35
  Jacobian CCS transformation                  0.00            0.00      0.84
  Jacobian transformation CC2                  0.01            0.01      1.03
  Jacobian CCS transformation                  0.00            0.00      1.47
  Jacobian transformation CC2                  0.01            0.01      0.96
  Jacobian CCS transformation                  0.00            0.00      0.84
  Jacobian transformation CC2                  0.01            0.01      0.99
  Davidson: CC ES iteration 1                  0.03            0.03      1.04
  CC2 excited state (right)                    0.04            0.05      1.08
  Excited state coupled cluster       
  engine                                       0.46            0.71      1.52


  :: Total time
  ================
  Total time in eT                             0.56            0.83      1.48
