


                     eT 1.5 - an electronic structure program

  ------------------------------------------------------------------------
   Author list in alphabetical order:
  ------------------------------------------------------------------------
   J. H. Andersen, A. Balbi, S. Coriani, S. D. Folkestad, T. Giovannini, 
   L. Goletto, T. S. Haugland, A. Hutcheson, I-M. Høyvik, E. F. Kjønstad, 
   H. Koch, T. Moitra, R. H. Myhre, A. C. Paul, S. Roet, M. Scavino, 
   A. Skeidsvoll, Å. H. Tveten
  ------------------------------------------------------------------------
   J. Chem. Phys. 152, 184103 (2020); https://doi.org/10.1063/5.0004713


   This is eT 1.5.0 Furia (development)
  ------------------------------------------------------------
  Configuration date: 2021-10-06 10:20:02 UTC +02:00
  Git branch:         hf-cleanup-oao-stuff
  Git hash:           82fed81e1022a04236e45d2edec97a412b5fa7bd
  Fortran compiler:   GNU 10.3.0
  C compiler:         GNU 10.3.0
  C++ compiler:       GNU 10.3.0
  LAPACK type:        SYSTEM_NATIVE
  BLAS type:          SYSTEM_NATIVE
  64-bit integers:    OFF
  OpenMP:             ON
  PCM:                OFF
  Forced batching:    OFF
  Runtime checks:     OFF
  ------------------------------------------------------------

  Calculation started: 2021-10-06 10:29:22 UTC +02:00


  :: Input file
  ================

     Note: geometry section is excluded from this print

     system
        name: H2O He
        charge: 0
     end system

     do
        response
     end do

     method
        hf
        cc3
     end method

     cc response
        eom
        dipole length
        transition moments
        permanent moments
        initial states: {0,1,2}
     end cc response

     solver scf
        gradient threshold: 1.0d-11
     end solver scf

     solver cholesky
        threshold: 1.0d-11
     end solver cholesky

     solver cc gs
        omega threshold: 1.0d-11
     end solver cc gs

     solver cc multipliers
        threshold: 1.0d-11
        algorithm: diis
     end solver cc multipliers

     solver cc es
        residual threshold: 1.0d-11
        singlet states: 2
        algorithm: non-linear davidson
        core excitation: {1}
     end solver cc es


  Running on 2 OMP threads
  Memory available for calculation: 8.000000 GB


  :: RHF wavefunction
  ======================

     ==============================================================================
                                     Geometry (angstrom)
     ==============================================================================
        Atom           X                  Y                  Z         # in input
     ==============================================================================
        Basis: 6-31g
        1  H     0.866810000000     0.601440000000     5.000000000000        1
        2  H    -0.866810000000     0.601440000000     5.000000000000        2
        3  O     0.000000000000    -0.075790000000     5.000000000000        3
        4 He     0.100000000000    -0.020000000000     7.530000000000        4
     ==============================================================================

     ==============================================================================
                                     Geometry (a.u.)
     ==============================================================================
        Atom           X                  Y                  Z         # in input
     ==============================================================================
        Basis: 6-31g
        1  H     1.638033502034     1.136556880358     9.448630622825        1
        2  H    -1.638033502034     1.136556880358     9.448630622825        2
        3  O     0.000000000000    -0.143222342981     9.448630622825        3
        4 He     0.188972612457    -0.037794522491    14.229637717975        4
     ==============================================================================

  - Cholesky decomposition of AO overlap to get linearly independent AOs:

     Linear dependence threshold:             0.10E-05
     Number of atomic orbitals:               15
     Number of orthonormal atomic orbitals:   15

  - Molecular orbital details:

     Number of occupied orbitals:         6
     Number of virtual orbitals:          9
     Number of molecular orbitals:       15


  :: Hartree-Fock engine
  =========================

  Drives the calculation of the Hartree-Fock state.

  This is a RHF ground state calculation.
  The following tasks will be performed:

     1) Generate initial SAD density
     2) Calculation of reference state (SCF-DIIS algorithm)


  1) Generate initial SAD density


  2) Calculation of reference state (SCF-DIIS algorithm)

  - SCF solver settings:

     Maximum iterations:                   100
     Acceleration type:                   diis

  - Convergence thresholds

     Residual threshold:            0.1000E-10

  - Setting initial AO density to sad

     Energy of initial guess:               -78.485136072343
     Number of electrons in guess:           12.000000000000

  - Screening and integral thresholds:

     Coulomb screening threshold:    0.1000E-16
     Exchange screening threshold:   0.1000E-14
     ERI cutoff:                     0.1000E-16
     One-electron integral  cutoff:  0.1000E-21
     Cumulative Fock threshold:      0.1000E+01

  - DIIS tool settings:

     DIIS dimension:   8

     Storage (solver scf_errors): memory
     Storage (solver scf_parameters): memory

  Iteration       Energy (a.u.)      Max(grad.)    Delta E (a.u.)
  ---------------------------------------------------------------
     1           -78.759259688327     0.1060E+00     0.7876E+02
     2           -78.790545677500     0.8623E-01     0.3129E-01
     3           -78.806023835883     0.7139E-02     0.1548E-01
     4           -78.806352535581     0.2490E-02     0.3287E-03
     5           -78.806369523747     0.1805E-03     0.1699E-04
     6           -78.806369659203     0.1193E-04     0.1355E-06
     7           -78.806369660762     0.3301E-05     0.1558E-08
     8           -78.806369660945     0.8317E-06     0.1829E-09
     9           -78.806369660959     0.1352E-06     0.1413E-10
    10           -78.806369660959     0.4496E-08     0.1279E-12
    11           -78.806369660959     0.2386E-08     0.1421E-13
    12           -78.806369660959     0.8987E-09     0.4263E-13
    13           -78.806369660959     0.1587E-09     0.1421E-13
    14           -78.806369660959     0.1518E-10     0.2842E-13
    15           -78.806369660959     0.2112E-11     0.2842E-13
  ---------------------------------------------------------------
  Convergence criterion met in 15 iterations!

  - Summary of RHF wavefunction energetics (a.u.):

     HOMO-LUMO gap:                  0.663332329043
     Nuclear repulsion energy:      12.116100574587
     Electronic energy:            -90.922470235546
     Total energy:                 -78.806369660959

  - Timings for the RHF ground state calculation

     Total wall time (sec):              0.24600
     Total cpu time (sec):               0.34268


  :: CC3 wavefunction
  ======================

     Bath orbital(s):         False

   - Number of orbitals:

     Occupied orbitals:    6
     Virtual orbitals:     9
     Molecular orbitals:   15
     Atomic orbitals:      15

   - Number of ground state amplitudes:

     Single excitation amplitudes:  54
     Double excitation amplitudes:  1485


  :: Coupled cluster response engine
  =====================================

  Calculates dipole transition moments and oscillator strengths between 

  the ground state and the excited states.

  This is a CC3 response calculation.
  The following tasks will be performed:

     1) Cholesky decomposition of the electron repulsion integrals
     2) Preparation of MO basis and integrals
     3) Calculation of the ground state (newton-raphson algorithm)
     4) Calculation of the multipliers (diis algorithm)
     5) Calculation of the excited states (non-linear davidson algorithm)
     6) Calculation of excited state properties (EOM)


  1) Cholesky decomposition of the electron repulsion integrals

   - Cholesky decomposition of electronic repulsion integrals solver
  ---------------------------------------------------------------------

  Performs a Cholesky decomposition of the two-electron electronic repulsion 
  integrals in the atomic orbital basis,

  (ab|cd) = sum_J L_ab^J L_cd^J.

  Once the Cholesky basis has been determined, the vectors L^J are constructed 
  and stored to disk. These may either be used directly, or be transformed 
  to the MO basis for use in post-HF calculations. For more information, 
  see S. D. Folkestad, E. F. Kjønstad and H. Koch, JCP, 150(19), (2019)

  - Cholesky decomposition settings:

     Target threshold is:   0.10E-10
     Span factor:           0.10E-01
     Max qual:                  1000

  - Cholesky decomposition ao details:

     Total number of AOs:                    15
     Total number of shell pairs:            66
     Total number of AO pairs:              120

     Significant shell pairs:                64
     Significant AO pairs:                  118

     Construct shell pairs:                  66
     Construct AO pairs:                    120

  Iter.  #Sign. ao pairs / shell pairs   Max diagonal    #Qualified    #Cholesky    Cholesky array size
  -------------------------------------------------------------------------------------------------------
     1               102 /      55       0.47804E+01          54             20              2040
     2                66 /      42       0.36454E-01          67             51              3366
     3                34 /      24       0.27633E-03          46             79              2686
     4                 7 /       7       0.25199E-05          27            103               721
     5                 1 /       1       0.93553E-08           6            109               109
     6                 0 /       0       0.14355E-10           1            110                 0
  -------------------------------------------------------------------------------------------------------

  - Summary of Cholesky decomposition of electronic repulsion integrals:

     Final number of Cholesky vectors: 110

 - Testing the Cholesky decomposition decomposition electronic repulsion integrals:

     Maximal difference between approximate and actual diagonal:              0.4523E-11
     Minimal element of difference between approximate and actual diagonal:  -0.2572E-15

  - Settings for integral handling:

     Cholesky vectors in memory: True
     ERI matrix in memory:       False
     T1 ERI matrix in memory:    True

  - Finished decomposing the ERIs.

     Total wall time (sec):              0.10300
     Total cpu time (sec):               0.10759


  2) Preparation of MO basis and integrals


  3) Calculation of the ground state (newton-raphson algorithm)

   - Davidson tool settings:

     Number of parameters:                 1539
     Number of requested solutions:           1
     Max reduced space dimension:            50

     Storage (newton_raphson_amplitude_updator_trials): file
     Storage (newton_raphson_amplitude_updator_transforms): file

   - DIIS coupled cluster ground state solver
  ----------------------------------------------

  A DIIS CC ground state amplitude equations solver. It uses an extrapolation 
  of previous quasi-Newton perturbation theory estimates of the next amplitudes. 
  See Helgaker et al., Molecular Electronic Structure Theory, Chapter 
  13.

  - CC ground state solver settings:

  - Convergence thresholds

     Residual threshold:            0.1000E-10
     Max number of iterations:      100

  - DIIS tool settings:

     DIIS dimension:   8

     Storage (cc_gs_diis_errors): file
     Storage (cc_gs_diis_parameters): file

  Iteration    Energy (a.u.)        |omega|       Delta E (a.u.)
  ---------------------------------------------------------------
    1           -78.959620318959     0.7544E-01     0.7896E+02
    2           -78.972057549335     0.1300E-02     0.1244E-01
    3           -78.972365217351     0.8082E-04     0.3077E-03
    4           -78.972371977270     0.6372E-05     0.6760E-05
    5           -78.972372207953     0.4984E-06     0.2307E-06
    6           -78.972372205717     0.2336E-07     0.2236E-08
    7           -78.972372205605     0.9009E-09     0.1124E-09
    8           -78.972372205603     0.3031E-10     0.1208E-11
    9           -78.972372205602     0.1318E-11     0.9237E-12
  ---------------------------------------------------------------
  Convergence criterion met in 9 iterations!

  - Ground state summary:

     Final ground state energy (a.u.):   -78.972372205602

     Correlation energy (a.u.):           -0.166002544643

     Largest single amplitudes:
     -----------------------------------
        a       i         t(a,i)
     -----------------------------------
        1      5        0.017936463504
        7      4        0.012496816920
        9      5        0.008025182459
        2      4        0.007532730790
        5      6        0.006287658987
        6      2        0.005573845853
        6      5        0.003376320153
        8      5        0.003331452952
        3      4        0.003298499231
        4      5        0.002503722828
     ------------------------------------

     Largest double amplitudes:
     --------------------------------------------------
        a      i       b      j         t(ai,bj)
     --------------------------------------------------
        2      4       2      4       -0.065385713005
        5      6       5      6       -0.048064920822
        8      3       8      3       -0.047785603479
        1      5       1      5       -0.045748441497
        2      4       1      5       -0.042104763427
        6      5       6      5       -0.039111805978
        1      4       1      4       -0.034183628626
        1      4       2      5       -0.029865841232
        2      5       2      5       -0.029556890555
        6      5       5      6        0.029129551961
     --------------------------------------------------

  - Finished solving the CC3 ground state equations

     Total wall time (sec):              0.64500
     Total cpu time (sec):               0.57657


  4) Calculation of the multipliers (diis algorithm)

   - DIIS coupled cluster multipliers solver
  ---------------------------------------------

  A DIIS CC multiplier equations solver. It combines a quasi-Newton perturbation 
  theory estimate of the next multipliers, using least square fitting 
  to find an an optimal combination of previous estimates such that the 
  update is minimized.

  See Helgaker et al., Molecular Electronic Structure Theory, Chapter 
  13, for the more details on this algorithm.

  - DIIS CC multipliers solver settings:

     Residual threshold:        0.10E-10
     Max number of iterations:       100

  - DIIS tool settings:

     DIIS dimension:   8

     Storage (cc_multipliers_diis_errors): file
     Storage (cc_multipliers_diis_parameters): file

  Iteration    Norm residual
  ----------------------------
    1          0.7114E+00
    2          0.1117E+00
    3          0.3810E-01
    4          0.7512E-02
    5          0.2111E-02
    6          0.5276E-03
    7          0.1471E-03
    8          0.3299E-04
    9          0.1110E-04
   10          0.4330E-05
   11          0.1124E-05
   12          0.3420E-06
   13          0.1622E-06
   14          0.6981E-07
   15          0.2159E-07
   16          0.6088E-08
   17          0.1876E-08
   18          0.6316E-09
   19          0.1786E-09
   20          0.5786E-10
   21          0.1585E-10
   22          0.4507E-11
  ----------------------------
  Convergence criterion met in 22 iterations!

  - DIIS CC multipliers solver summary:

     Largest single amplitudes:
     -----------------------------------
        a       i         tbar(a,i)
     -----------------------------------
        1      5        0.031076307899
        7      4        0.023913495019
        9      5        0.015172891038
        2      4        0.011247921368
        5      6        0.009917674113
        6      2        0.009776450016
        6      5        0.007647846406
        8      5        0.006287675627
        3      4        0.006063615865
        4      5        0.004768660921
     ------------------------------------

     Largest double amplitudes:
     --------------------------------------------------
        a      i       b      j         tbar(ai,bj)
     --------------------------------------------------
        2      4       2      4       -0.127996025934
        2      4       1      5       -0.104716434270
        6      5       5      6        0.098408237939
        5      6       5      6       -0.096940288953
        8      3       8      3       -0.095189964867
        2      4       5      6       -0.091555166664
        1      5       1      5       -0.088657477209
        7      4       5      6        0.080962886192
        6      5       6      5       -0.077446179670
        2      4       6      5        0.077222511765
     --------------------------------------------------

  - Finished solving the cc3 multipliers equations

     Total wall time (sec):              1.37200
     Total cpu time (sec):               1.36947


  5) Calculation of the excited states (non-linear davidson algorithm)
     Calculating right vectors

   - Non-linear Davidson coupled cluster excited state solver
  --------------------------------------------------------------

  A non-linear Davidson solver that calculates the lowest eigenvalues 
  and the right or left eigenvectors of the Jacobian matrix A. The eigenvalue 
  problem is solved in a reduced space for fixed energies, before the 
  energies are updated and a new reduced space built.

  See C. Hättig and F. Weigend, J. Chem. Phys. 113, 5154 (2000).

  - Settings for coupled cluster excited state solver (Davidson):

     Calculation type:    core
     Excitation vectors:  right

  - Convergence thresholds

     Residual threshold:            0.1000E-10

     Number of singlet states:               2
     Max number of iterations:             100
     Max micro iterations:                 100
     Relative micro threshold:        0.10E+00


   - Davidson tool settings:

     Number of parameters:                 1539
     Number of requested solutions:           2
     Max reduced space dimension:           100

     Storage (nonlin_cc_es_davidson_trials): file
     Storage (nonlin_cc_es_davidson_transforms): file

  Macro iteration: 1

  Root     Eigenvalue (Re)     Residual norm     Delta E
  ------------------------------------------------------------
   1      20.312282787017      0.9002E+00        0.2031E+02
   2      20.363516595176      0.9015E+00        0.2036E+02
  ------------------------------------------------------------

     Starting on microiterations

     Number of micro iterations: 4
     Number of transformations:  6


  Macro iteration: 2

  Root     Eigenvalue (Re)     Residual norm     Delta E
  ------------------------------------------------------------
   1      19.693741219775      0.4688E-01        0.6185E+00
   2      19.763752194994      0.4708E-01        0.5998E+00
  ------------------------------------------------------------

     Starting on microiterations

     Number of micro iterations: 4
     Number of transformations:  6


  Macro iteration: 3

  Root     Eigenvalue (Re)     Residual norm     Delta E
  ------------------------------------------------------------
   1      19.703800599553      0.4961E-01        0.1006E-01
   2      19.772945835831      0.4329E-01        0.9194E-02
  ------------------------------------------------------------

     Starting on microiterations

     Number of micro iterations: 4
     Number of transformations:  6


  Macro iteration: 4

  Root     Eigenvalue (Re)     Residual norm     Delta E
  ------------------------------------------------------------
   1      19.710879211123      0.4122E-02        0.7079E-02
   2      19.778654827357      0.3973E-02        0.5709E-02
  ------------------------------------------------------------

     Starting on microiterations

     Number of micro iterations: 4
     Number of transformations:  6


  Macro iteration: 5

  Root     Eigenvalue (Re)     Residual norm     Delta E
  ------------------------------------------------------------
   1      19.710838885064      0.3928E-03        0.4033E-04
   2      19.778732463552      0.3000E-03        0.7764E-04
  ------------------------------------------------------------

     Starting on microiterations

     Number of micro iterations: 4
     Number of transformations:  6


  Macro iteration: 6

  Root     Eigenvalue (Re)     Residual norm     Delta E
  ------------------------------------------------------------
   1      19.710777992858      0.2159E-04        0.6089E-04
   2      19.778697220310      0.2029E-04        0.3524E-04
  ------------------------------------------------------------

     Starting on microiterations

     Number of micro iterations: 4
     Number of transformations:  5


  Macro iteration: 7

  Root     Eigenvalue (Re)     Residual norm     Delta E
  ------------------------------------------------------------
   1      19.710778226317      0.4041E-05        0.2335E-06
   2      19.778696655441      0.2008E-05        0.5649E-06
  ------------------------------------------------------------

     Starting on microiterations

     Number of micro iterations: 4
     Number of transformations:  6


  Macro iteration: 8

  Root     Eigenvalue (Re)     Residual norm     Delta E
  ------------------------------------------------------------
   1      19.710778982843      0.1513E-06        0.7565E-06
   2      19.778696965026      0.1667E-06        0.3096E-06
  ------------------------------------------------------------

     Starting on microiterations

     Number of micro iterations: 4
     Number of transformations:  6


  Macro iteration: 9

  Root     Eigenvalue (Re)     Residual norm     Delta E
  ------------------------------------------------------------
   1      19.710778979302      0.4554E-07        0.3540E-08
   2      19.778696978891      0.2060E-07        0.1387E-07
  ------------------------------------------------------------

     Starting on microiterations

     Number of micro iterations: 4
     Number of transformations:  5


  Macro iteration: 10

  Root     Eigenvalue (Re)     Residual norm     Delta E
  ------------------------------------------------------------
   1      19.710778971448      0.3870E-08        0.7855E-08
   2      19.778696975905      0.3983E-08        0.2986E-08
  ------------------------------------------------------------

     Starting on microiterations

     Number of micro iterations: 4
     Number of transformations:  6


  Macro iteration: 11

  Root     Eigenvalue (Re)     Residual norm     Delta E
  ------------------------------------------------------------
   1      19.710778971442      0.4290E-09        0.5649E-11
   2      19.778696975878      0.2313E-09        0.2749E-10
  ------------------------------------------------------------

     Starting on microiterations

     Number of micro iterations: 4
     Number of transformations:  6


  Macro iteration: 12

  Root     Eigenvalue (Re)     Residual norm     Delta E
  ------------------------------------------------------------
   1      19.710778971513      0.2746E-10        0.7136E-10
   2      19.778696975905      0.1759E-10        0.2665E-10
  ------------------------------------------------------------

  Warning: Linear dependence threshold was set to  0.50E-11, which is 
           below the default value of  0.10E-10. May lead to instabilities. 
           Consider loosening the relative micro threshold.

     Starting on microiterations

     Number of micro iterations: 3
     Number of transformations:  4


  Macro iteration: 13

  Root     Eigenvalue (Re)     Residual norm     Delta E
  ------------------------------------------------------------
   1      19.710778971514      0.5104E-11        0.4547E-12
   2      19.778696975905      0.2476E-11        0.5045E-12
  ------------------------------------------------------------
  Convergence criterion met in 13 iterations!

  - Excitation vector amplitudes:

     Electronic state nr. 1

     Energy (Hartree):                 19.710778971514
     Fraction singles (|R1|/|R|):       0.894299165611

     Largest single amplitudes:
     -----------------------------------
        a       i         R(a,i)
     -----------------------------------
        1      1        0.882600770431
        4      1        0.121116963383
        6      1       -0.057477222604
        9      1       -0.043100633854
        8      1       -0.028712540381
        5      1        0.011398942063
        3      1        0.001256333511
        7      1       -0.000581985307
        2      1        0.000011633699
        1      2        0.000000000000
     ------------------------------------

     Largest double amplitudes:
     --------------------------------------------------
        a      i       b      j         R(ai,bj)
     --------------------------------------------------
        1      1       2      4       -0.208378510726
        1      1       1      5       -0.173994986316
        1      1       5      6       -0.169799665538
        1      1       6      5        0.152052897341
        1      1       7      4        0.138054367507
        1      1       1      2       -0.111924519861
        1      1       4      5       -0.088983782369
        2      1       1      4       -0.079327290526
        1      1       3      4       -0.072370556943
        1      1       9      2        0.071577981059
     --------------------------------------------------

     Electronic state nr. 2

     Energy (Hartree):                 19.778696975905
     Fraction singles (|R1|/|R|):       0.898673892217

     Largest single amplitudes:
     -----------------------------------
        a       i         R(a,i)
     -----------------------------------
        2      1       -0.881564461094
        7      1        0.128850016984
        3      1       -0.117676185182
        8      1       -0.002345057723
        4      1        0.001471280751
        5      1       -0.001066242901
        9      1        0.000210779308
        6      1       -0.000091000397
        1      1        0.000022499373
        1      2        0.000000000000
     ------------------------------------

     Largest double amplitudes:
     --------------------------------------------------
        a      i       b      j         R(ai,bj)
     --------------------------------------------------
        2      1       2      4        0.225340953022
        2      1       5      6        0.164279758097
        2      1       1      5        0.155812167456
        2      1       6      5       -0.144046138615
        2      1       7      4       -0.133773504589
        2      1       1      2        0.093267077732
        2      1       4      5        0.087719332200
        2      1       3      4        0.069807625945
        2      1       9      2       -0.068849211772
        1      1       2      5        0.067926536036
     --------------------------------------------------

     - Electronic excitation energies:

                                      Excitation energy
                          ------------------------------------------
      State                (Hartree)             (eV)
     ---------------------------------------------------------------
        1                 19.710778971514      536.357615348757
        2                 19.778696975905      538.205758383959
     ---------------------------------------------------------------
     eV/Hartree (CODATA 2014): 27.21138602

  - Finished solving the CC3 excited state equations (right)

     Total wall time (sec):              2.81100
     Total cpu time (sec):               2.78478


  5) Calculation of the excited states (non-linear davidson algorithm)
     Calculating left vectors

   - Non-linear Davidson coupled cluster excited state solver
  --------------------------------------------------------------

  A non-linear Davidson solver that calculates the lowest eigenvalues 
  and the right or left eigenvectors of the Jacobian matrix A. The eigenvalue 
  problem is solved in a reduced space for fixed energies, before the 
  energies are updated and a new reduced space built.

  See C. Hättig and F. Weigend, J. Chem. Phys. 113, 5154 (2000).

  - Settings for coupled cluster excited state solver (Davidson):

     Calculation type:    core
     Excitation vectors:  left

  - Convergence thresholds

     Residual threshold:            0.1000E-10

     Number of singlet states:               2
     Max number of iterations:             100
     Max micro iterations:                 100
     Relative micro threshold:        0.10E+00


   - Davidson tool settings:

     Number of parameters:                 1539
     Number of requested solutions:           2
     Max reduced space dimension:           100

     Storage (nonlin_cc_es_davidson_trials): file
     Storage (nonlin_cc_es_davidson_transforms): file
     Restarting left vector 1 from file r_001.
     Restarting left vector 2 from file r_002.

  Macro iteration: 1

  Root     Eigenvalue (Re)     Residual norm     Delta E
  ------------------------------------------------------------
   1      19.681880622200      0.1428E+00        0.1968E+02
   2      19.752473875842      0.1045E+00        0.1975E+02
  ------------------------------------------------------------

     Starting on microiterations

     Number of micro iterations: 4
     Number of transformations:  5


  Macro iteration: 2

  Root     Eigenvalue (Re)     Residual norm     Delta E
  ------------------------------------------------------------
   1      19.711212889358      0.7451E-02        0.2933E-01
   2      19.779030793677      0.1360E-01        0.2656E-01
  ------------------------------------------------------------

     Starting on microiterations

     Number of micro iterations: 4
     Number of transformations:  5


  Macro iteration: 3

  Root     Eigenvalue (Re)     Residual norm     Delta E
  ------------------------------------------------------------
   1      19.710618916531      0.1396E-02        0.5940E-03
   2      19.778600570281      0.9736E-03        0.4302E-03
  ------------------------------------------------------------

     Starting on microiterations

     Number of micro iterations: 5
     Number of transformations:  7


  Macro iteration: 4

  Root     Eigenvalue (Re)     Residual norm     Delta E
  ------------------------------------------------------------
   1      19.710783364565      0.5629E-04        0.1644E-03
   2      19.778697537495      0.1114E-03        0.9697E-04
  ------------------------------------------------------------

     Starting on microiterations

     Number of micro iterations: 4
     Number of transformations:  6


  Macro iteration: 5

  Root     Eigenvalue (Re)     Residual norm     Delta E
  ------------------------------------------------------------
   1      19.710777320479      0.8473E-05        0.6044E-05
   2      19.778695508822      0.1141E-04        0.2029E-05
  ------------------------------------------------------------

     Starting on microiterations

     Number of micro iterations: 5
     Number of transformations:  7


  Macro iteration: 6

  Root     Eigenvalue (Re)     Residual norm     Delta E
  ------------------------------------------------------------
   1      19.710779023079      0.9882E-06        0.1703E-05
   2      19.778696986889      0.2999E-06        0.1478E-05
  ------------------------------------------------------------

     Starting on microiterations

     Number of micro iterations: 4
     Number of transformations:  5


  Macro iteration: 7

  Root     Eigenvalue (Re)     Residual norm     Delta E
  ------------------------------------------------------------
   1      19.710778952351      0.1156E-06        0.7073E-07
   2      19.778696968545      0.3490E-07        0.1834E-07
  ------------------------------------------------------------

     Starting on microiterations

     Number of micro iterations: 5
     Number of transformations:  6


  Macro iteration: 8

  Root     Eigenvalue (Re)     Residual norm     Delta E
  ------------------------------------------------------------
   1      19.710778972223      0.4398E-08        0.1987E-07
   2      19.778696975214      0.1058E-07        0.6669E-08
  ------------------------------------------------------------

     Starting on microiterations

     Number of micro iterations: 4
     Number of transformations:  5


  Macro iteration: 9

  Root     Eigenvalue (Re)     Residual norm     Delta E
  ------------------------------------------------------------
   1      19.710778971338      0.1097E-08        0.8855E-09
   2      19.778696975995      0.9155E-09        0.7810E-09
  ------------------------------------------------------------

     Starting on microiterations

     Number of micro iterations: 4
     Number of transformations:  6


  Macro iteration: 10

  Root     Eigenvalue (Re)     Residual norm     Delta E
  ------------------------------------------------------------
   1      19.710778971521      0.9685E-10        0.1828E-09
   2      19.778696975891      0.9515E-10        0.1041E-09
  ------------------------------------------------------------

  Warning: Linear dependence threshold was set to  0.97E-11, which is 
           below the default value of  0.10E-10. May lead to instabilities. 
           Consider loosening the relative micro threshold.

     Starting on microiterations

     Number of micro iterations: 5
     Number of transformations:  7


  Macro iteration: 11

  Root     Eigenvalue (Re)     Residual norm     Delta E
  ------------------------------------------------------------
   1      19.710778971511      0.7134E-11        0.9329E-11
   2      19.778696975906      0.6875E-11        0.1504E-10
  ------------------------------------------------------------
  Convergence criterion met in 11 iterations!

  - Excitation vector amplitudes:

     Electronic state nr. 1

     Energy (Hartree):                 19.710778971511
     Fraction singles (|L1|/|L|):       0.759810693635

     Largest single amplitudes:
     -----------------------------------
        a       i         L(a,i)
     -----------------------------------
        1      1        0.749490169230
        4      1        0.103497377347
        6      1       -0.051528070263
        9      1       -0.038500415921
        8      1       -0.025172533644
        5      1        0.009621559173
        3      1        0.001075435034
        7      1       -0.000507673206
        2      1        0.000008821347
        1      2        0.000000000000
     ------------------------------------

     Largest double amplitudes:
     --------------------------------------------------
        a      i       b      j         L(ai,bj)
     --------------------------------------------------
        1      1       2      4       -0.312017858349
        1      1       5      6       -0.275999268463
        1      1       6      5        0.248119557176
        1      1       7      4        0.234300221060
        1      1       1      5       -0.147611931407
        1      1       4      5       -0.139710929834
        1      1       9      2        0.116238917668
        1      1       3      4       -0.110952725951
        5      1       1      6        0.105151468504
        1      1       1      2       -0.099256287172
     --------------------------------------------------

     Electronic state nr. 2

     Energy (Hartree):                 19.778696975906
     Fraction singles (|L1|/|L|):       0.778054330605

     Largest single amplitudes:
     -----------------------------------
        a       i         L(a,i)
     -----------------------------------
        2      1       -0.762773134929
        7      1        0.114770204592
        3      1       -0.101816001854
        8      1       -0.002111392367
        4      1        0.001274058420
        5      1       -0.000928543501
        9      1        0.000194833880
        6      1       -0.000078258156
        1      1        0.000020687794
        1      2        0.000000000000
     ------------------------------------

     Largest double amplitudes:
     --------------------------------------------------
        a      i       b      j         L(ai,bj)
     --------------------------------------------------
        2      1       5      6        0.270044365087
        2      1       6      5       -0.242953365861
        2      1       7      4       -0.233115624062
        2      1       1      5        0.222077530484
        2      1       2      4        0.203093443177
        2      1       1      2        0.145121274833
        2      1       4      5        0.138273272476
        2      1       9      2       -0.113418969914
        2      1       3      4        0.101647162481
        5      1       2      6       -0.099932683766
     --------------------------------------------------

     - Electronic excitation energies:

                                      Excitation energy
                          ------------------------------------------
      State                (Hartree)             (eV)
     ---------------------------------------------------------------
        1                 19.710778971511      536.357615348695
        2                 19.778696975906      538.205758383977
     ---------------------------------------------------------------
     eV/Hartree (CODATA 2014): 27.21138602

  - Finished solving the CC3 excited state equations (left)

     Total wall time (sec):              2.86700
     Total cpu time (sec):               2.53616


  6) Calculation of excited state properties (EOM)

  :: EOM properties calculation

  - Summary of EOM transition properties calculation:

     States m = 0 and n = 1:
     -------------------------
     Calculation type:                             EOM
     Excitation energy [E_h]:          19.710778971514
     Excitation energy [eV]:          536.357615348757
     Hartree-to-eV (CODATA 2014):          27.21138602

                   Transition moments [a.u.]         Transition strength [a.u.]
     --------------------------------------------------------------------------
     Comp. q     < n |q| m >       < m |q| n >        < n |q| m > < m |q| n >
     --------------------------------------------------------------------------
     X          -0.0000305683     -0.0000650270            0.0000000020
     Y           0.0302623459      0.0639964641            0.0019366831
     Z          -0.0003095898     -0.0006545579            0.0000002026
     --------------------------------------------------------------------------
     Oscillator strength:      0.025451711087

     States m = 0 and n = 2:
     -------------------------
     Calculation type:                             EOM
     Excitation energy [E_h]:          19.778696975905
     Excitation energy [eV]:          538.205758383959
     Hartree-to-eV (CODATA 2014):          27.21138602

                   Transition moments [a.u.]         Transition strength [a.u.]
     --------------------------------------------------------------------------
     Comp. q     < n |q| m >       < m |q| n >        < n |q| m > < m |q| n >
     --------------------------------------------------------------------------
     X          -0.0392745510     -0.0822658563            0.0032309546
     Y          -0.0000286955     -0.0000598643            0.0000000017
     Z           0.0000270630      0.0000567506            0.0000000015
     --------------------------------------------------------------------------
     Oscillator strength:      0.042602757184

     States m = 1 and n = 2:
     -------------------------
     Calculation type:                             EOM
     Excitation energy [E_h]:           0.067918004391
     Excitation energy [eV]:            1.848143035202
     Hartree-to-eV (CODATA 2014):          27.21138602

                   Transition moments [a.u.]         Transition strength [a.u.]
     --------------------------------------------------------------------------
     Comp. q     < n |q| m >       < m |q| n >        < n |q| m > < m |q| n >
     --------------------------------------------------------------------------
     X           1.5794622885      1.5665571131            2.4743178830
     Y           0.0001226179      0.0001246948            0.0000000153
     Z          -0.0003432313     -0.0003444799            0.0000001182
     --------------------------------------------------------------------------
     Oscillator strength:      0.112033827941

  - Summary of EOM permanent moments calculation:

     Total permanent dipole moments in [a.u.]:
     =========================================

     Conversion factor from au to Debye: 2.541746473


      Comp.        Nuclear              0              1              2
     -------------------------------------------------------------------
      X           0.377945       0.000008       0.002521      -0.002326
      Y           1.051746       0.956296       0.234265       0.334658
      Z         122.945582       0.003989       0.007899       0.004449
     -------------------------------------------------------------------
     Norm       122.950661       0.956304       0.234412       0.334696
     -------------------------------------------------------------------

  - Timings for the CC3 response calculation

     Total wall time (sec):              8.26800
     Total cpu time (sec):               7.83905

  ------------------------------------------------------------

  Peak memory usage during the execution of eT: 1.462936 MB

  :: There were 2 warnings during the execution of eT. ::

  Total wall time in eT (sec):              8.54000
  Total cpu time in eT (sec):               8.20803

  Calculation ended: 2021-10-06 10:29:31 UTC +02:00

  - Implementation references:

     eT: https://doi.org/10.1063/5.0004713
     CC3: https://doi.org/10.1021/acs.jctc.0c00686
     Cholesky decomposition of ERIs: https://doi.org/10.1063/1.5083802
     Multimodel Newton algorithm: https://doi.org/10.1063/5.0010989

  eT terminated successfully!
