


                     eT 1.5 - an electronic structure program

  ------------------------------------------------------------------------
   Author list in alphabetical order:
  ------------------------------------------------------------------------
   J. H. Andersen, A. Balbi, S. Coriani, S. D. Folkestad, T. Giovannini, 
   L. Goletto, T. S. Haugland, A. Hutcheson, I-M. Høyvik, E. F. Kjønstad, 
   H. Koch, T. Moitra, R. H. Myhre, A. C. Paul, S. Roet, M. Scavino, 
   A. Skeidsvoll, Å. H. Tveten
  ------------------------------------------------------------------------
   J. Chem. Phys. 152, 184103 (2020); https://doi.org/10.1063/5.0004713


   This is eT 1.5.0 Furia (development)
  ------------------------------------------------------------
  Configuration date: 2021-10-06 10:20:02 UTC +02:00
  Git branch:         hf-cleanup-oao-stuff
  Git hash:           82fed81e1022a04236e45d2edec97a412b5fa7bd
  Fortran compiler:   GNU 10.3.0
  C compiler:         GNU 10.3.0
  C++ compiler:       GNU 10.3.0
  LAPACK type:        SYSTEM_NATIVE
  BLAS type:          SYSTEM_NATIVE
  64-bit integers:    OFF
  OpenMP:             ON
  PCM:                OFF
  Forced batching:    OFF
  Runtime checks:     OFF
  ------------------------------------------------------------

  Calculation started: 2021-10-06 10:31:45 UTC +02:00


  :: Input file
  ================

     Note: geometry section is excluded from this print

     system
        name: H2O-H2O-tip3p
        charge: 0
     end system

     do
       ground state
     end do


     memory
        available: 8
     end memory

     solver scf
        algorithm:          scf
        energy threshold:   1.0d-10
        gradient threshold: 1.0d-10
     end solver scf

     molecular mechanics
        forcefield: non-polarizable
     end molecular mechanics

     method
        hf
     end method


  Running on 2 OMP threads
  Memory available for calculation: 8.000000 GB


  :: RHF wavefunction
  ======================

     ==============================================================================
                                     Geometry (angstrom)
     ==============================================================================
        Atom           X                  Y                  Z         # in input
     ==============================================================================
        Basis: aug-cc-pvdz
        1  H     0.023452000000     0.185621000000     0.000000000000        1
        2  H     0.906315000000     1.422088000000     0.000000000000        2
        3  O     0.009319000000     1.133156000000     0.000000000000        3
     ==============================================================================

     ==============================================================================
                                     Geometry (a.u.)
     ==============================================================================
        Atom           X                  Y                  Z         # in input
     ==============================================================================
        Basis: aug-cc-pvdz
        1  H     0.044317857073     0.350772852968     0.000000000000        1
        2  H     1.712687132585     2.687356845030     0.000000000000        2
        3  O     0.017610357755     2.141354496408     0.000000000000        3
     ==============================================================================

  - Cholesky decomposition of AO overlap to get linearly independent AOs:

     Linear dependence threshold:             0.10E-05
     Number of atomic orbitals:               41
     Number of orthonormal atomic orbitals:   41

  This is a QM/MM calculation

     Embedding type: non-polarizable

     Each atom of the MM portion is endowed with a charge which value 
     is a fixed external parameter.

     The QM/MM electrostatic interaction energy is defined as:

        E^ele_QM/MM = sum_i q_i * V_i(P)

     where V_i(P) is the electrostatic potential due to the QM density 
     calculated at the position of the i-th charge q_i.

     For further details, see:
     Senn & Thiel, Angew. Chem. Int. Ed., 2009, 48, 1198−1229


     ====================================================================
                             MM Geometry (angstrom)
     ====================================================================
     Atom                    X          Y          Z            Charge
     ====================================================================
      O                -0.042964  -1.404707  -0.000000       -0.834000
      H                -0.419020  -1.818953   0.760190        0.417000
      H                -0.419020  -1.818953  -0.760190        0.417000
     ====================================================================

     ====================================================================
                             MM Geometry (a.u.)
     ====================================================================
     Atom                    X          Y          Z            Charge
     ====================================================================
      O                -0.081190  -2.654512  -0.000000       -0.834000
      H                -0.791833  -3.437323   1.436551        0.417000
      H                -0.791833  -3.437323  -1.436551        0.417000
     ====================================================================

  - Molecular orbital details:

     Number of occupied orbitals:         5
     Number of virtual orbitals:         36
     Number of molecular orbitals:       41


  :: Hartree-Fock engine
  =========================

  Drives the calculation of the Hartree-Fock state.

  This is a RHF ground state calculation.
  The following tasks will be performed:

     1) Generate initial SAD density
     2) Calculation of reference state (SCF algorithm)


  1) Generate initial SAD density


  2) Calculation of reference state (SCF algorithm)

  - SCF solver settings:

     Maximum iterations:                   100
     Acceleration type:                   none

  - Convergence thresholds

     Residual threshold:            0.1000E-09
     Energy threshold:              0.1000E-09

  - Setting initial AO density to sad

     Energy of initial guess:               -76.187335827224
     Number of electrons in guess:           10.000000000000

  - Screening and integral thresholds:

     Coulomb screening threshold:    0.1000E-15
     Exchange screening threshold:   0.1000E-13
     ERI cutoff:                     0.1000E-15
     One-electron integral  cutoff:  0.1000E-20
     Cumulative Fock threshold:      0.1000E+01

  Iteration       Energy (a.u.)      Max(grad.)    Delta E (a.u.)
  ---------------------------------------------------------------
     1           -76.341900642499     0.1058E+00     0.7634E+02
     2           -76.374795609177     0.6986E-01     0.3289E-01
     3           -76.384590774748     0.4556E-01     0.9795E-02
     4           -76.388364773498     0.2868E-01     0.3774E-02
     5           -76.389919198440     0.1851E-01     0.1554E-02
     6           -76.390542150632     0.1166E-01     0.6230E-03
     7           -76.390796551203     0.7493E-02     0.2544E-03
     8           -76.390899189874     0.4737E-02     0.1026E-03
     9           -76.390940913771     0.3032E-02     0.4172E-04
    10           -76.390957792029     0.1923E-02     0.1688E-04
    11           -76.390964640759     0.1228E-02     0.6849E-05
    12           -76.390967414293     0.7798E-03     0.2774E-05
    13           -76.390968538905     0.4973E-03     0.1125E-05
    14           -76.390968994547     0.3162E-03     0.4556E-06
    15           -76.390969179248     0.2015E-03     0.1847E-06
    16           -76.390969254094     0.1282E-03     0.7485E-07
    17           -76.390969284430     0.8164E-04     0.3034E-07
    18           -76.390969296725     0.5196E-04     0.1229E-07
    19           -76.390969301707     0.3308E-04     0.4983E-08
    20           -76.390969303727     0.2106E-04     0.2019E-08
    21           -76.390969304545     0.1341E-04     0.8185E-09
    22           -76.390969304877     0.8535E-05     0.3317E-09
    23           -76.390969305011     0.5434E-05     0.1344E-09
    24           -76.390969305066     0.3459E-05     0.5448E-10
    25           -76.390969305088     0.2202E-05     0.2200E-10
    26           -76.390969305097     0.1402E-05     0.9024E-11
    27           -76.390969305100     0.8925E-06     0.3652E-11
    28           -76.390969305102     0.5682E-06     0.1421E-11
    29           -76.390969305103     0.3617E-06     0.6253E-12
    30           -76.390969305103     0.2303E-06     0.1705E-12
    31           -76.390969305103     0.1466E-06     0.8527E-13
    32           -76.390969305103     0.9333E-07     0.9948E-13
    33           -76.390969305103     0.5941E-07     0.1421E-13
    34           -76.390969305103     0.3782E-07     0.1421E-13
    35           -76.390969305103     0.2408E-07     0.2842E-13
    36           -76.390969305103     0.1533E-07     0.8527E-13
    37           -76.390969305103     0.9759E-08     0.8527E-13
    38           -76.390969305103     0.6213E-08     0.0000E+00
    39           -76.390969305103     0.3955E-08     0.4263E-13
    40           -76.390969305103     0.2518E-08     0.1421E-13
    41           -76.390969305103     0.1603E-08     0.1137E-12
    42           -76.390969305103     0.1020E-08     0.7105E-13
    43           -76.390969305103     0.6496E-09     0.7105E-13
    44           -76.390969305103     0.4136E-09     0.1421E-13
    45           -76.390969305103     0.2633E-09     0.2842E-13
    46           -76.390969305103     0.1676E-09     0.1421E-13
    47           -76.390969305103     0.1067E-09     0.5684E-13
    48           -76.390969305103     0.6793E-10     0.9948E-13
  ---------------------------------------------------------------
  Convergence criterion met in 48 iterations!

  - Summary of RHF wavefunction energetics (a.u.):

     HOMO-LUMO gap:                  0.517490047355
     Nuclear repulsion energy:       9.307879526626
     Electronic energy:            -85.698848831729
     Total energy:                 -76.390969305103

  - Summary of QM/MM energetics:
                                         a.u.             eV     kcal/mol
     QM/MM SCF Contribution:         0.323022340868     8.78989   202.700
     QM/MM Electrostatic Energy:    -0.350876629340    -9.54784  -220.178

  - Timings for the RHF ground state calculation

     Total wall time (sec):              3.77900
     Total cpu time (sec):               7.05017

  ------------------------------------------------------------

  Peak memory usage during the execution of eT: 262.612 KB

  Total wall time in eT (sec):              3.82000
  Total cpu time in eT (sec):               7.09366

  Calculation ended: 2021-10-06 10:31:49 UTC +02:00

  - Implementation references:

     eT: https://doi.org/10.1063/5.0004713

  eT terminated successfully!
